QRP - Criminology Analysis
…
ggsave(file.path("figures","fig4_stackedGraphOSPs.png"), width = 30, height = 20, units = "cm")

Calculate the proportion of each response that is visualized in the above proportion plots - requested by Simine and not in manuscript

tq<-drop_na(longQRPs) %>%
  group_by(practiceLongName, response) %>%
  summarise(n = n()) %>%
  mutate(proportion = n / sum(n)) %>%
  mutate(percentRounded = round(proportion*100,1)) %>%
  relocate(practiceLongName,response,percentRounded)
show(tq)

## # A tibble: 40 x 5
## # Groups:   practiceLongName [10]
##    practiceLongName response      percentRounded     n proportion
##    <fct>            <fct>                  <dbl> <int>      <dbl>
##  1 Hide imputation  Almost always            1.2     8     0.0119
##  2 Hide imputation  Often                    4      27     0.0402
##  3 Hide imputation  Rarely                  13.2    89     0.132 
##  4 Hide imputation  Never                   81.5   548     0.815 
##  5 Hide problems    Almost always            7.9    54     0.0788
##  6 Hide problems    Often                    2.9    20     0.0292
##  7 Hide problems    Rarely                  14      96     0.140 
##  8 Hide problems    Never                   75.2   515     0.752 
##  9 Round p-values   Almost always            5.5    37     0.0549
## 10 Round p-values   Often                   12.2    82     0.122 
## #  with 30 more rows
…
